{
  "project_info": {
    "project_number": "256060437748",
    "firebase_url": "https://yazdshop.firebaseio.com",
    "project_id": "yazdshop",
    "storage_bucket": "yazdshop.appspot.com"
  },
  "client": [
    {
      "client_info": {
        "mobilesdk_app_id": "1:256060437748:android:fb0917b6aae61584",
        "android_client_info": {
          "package_name": "ir.food.ferz"
        }
      },
      "oauth_client": [
        {
          "client_id": "256060437748-noo40236h0g62l185c1ppo1odu46vqbp.apps.googleusercontent.com",
          "client_type": 1,
          "android_info": {
            "package_name": "ir.yazd.shop",
            "certificate_hash": "2e3968de8f69f54158903527d9c0886e05a622bd"
          }
        },
        {
          "client_id": "256060437748-dfik4oukh0a2qej6rcn9e0r8ud6dvals.apps.googleusercontent.com",
          "client_type": 3
        }
      ],
      "api_key": [
        {
          "current_key": "AIzaSyAvqfOnuy6LSUDK2aaFNTip-nyoXBtJ1BA"
        }
      ],
      "services": {
        "appinvite_service": {
          "other_platform_oauth_client": [
            {
              "client_id": "256060437748-dfik4oukh0a2qej6rcn9e0r8ud6dvals.apps.googleusercontent.com",
              "client_type": 3
            }
          ]
        }
      }
    }
  ],
  "configuration_version": "1"
}